inputs=60 keys=166 outputs=26 gates=854
iteration: 1; vars: 3709; clauses: 1746; decisions: 1058
iteration: 2; vars: 4518; clauses: 2619; decisions: 1845
iteration: 3; vars: 5327; clauses: 3406; decisions: 2764
iteration: 4; vars: 6136; clauses: 4194; decisions: 4114
iteration: 5; vars: 6945; clauses: 2005; decisions: 5864
iteration: 6; vars: 7754; clauses: 3066; decisions: 6779
iteration: 7; vars: 8563; clauses: 3993; decisions: 7565
iteration: 8; vars: 9372; clauses: 2276; decisions: 8779
iteration: 9; vars: 10181; clauses: 3419; decisions: 9121
iteration: 10; vars: 10990; clauses: 4558; decisions: 9649
iteration: 11; vars: 11799; clauses: 5690; decisions: 10381
iteration: 12; vars: 12608; clauses: 2578; decisions: 11829
iteration: 13; vars: 13417; clauses: 3316; decisions: 12208
iteration: 14; vars: 14226; clauses: 4099; decisions: 12696
iteration: 15; vars: 15035; clauses: 4872; decisions: 13102
iteration: 16; vars: 15844; clauses: 5663; decisions: 13560
iteration: 17; vars: 16653; clauses: 2726; decisions: 14443
iteration: 18; vars: 17462; clauses: 3678; decisions: 15095
iteration: 19; vars: 18271; clauses: 4694; decisions: 16022
iteration: 20; vars: 19080; clauses: 5554; decisions: 16475
iteration: 21; vars: 19889; clauses: 3052; decisions: 17317
iteration: 22; vars: 20698; clauses: 4131; decisions: 18322
iteration: 23; vars: 21507; clauses: 4938; decisions: 18742
iteration: 24; vars: 22316; clauses: 5848; decisions: 19727
iteration: 25; vars: 23125; clauses: 6805; decisions: 20260
iteration: 26; vars: 23934; clauses: 3397; decisions: 21902
iteration: 27; vars: 24743; clauses: 4404; decisions: 22727
iteration: 28; vars: 25552; clauses: 5324; decisions: 23033
iteration: 29; vars: 26361; clauses: 6233; decisions: 23558
iteration: 30; vars: 27170; clauses: 7165; decisions: 24216
iteration: 31; vars: 27979; clauses: 3676; decisions: 24980
iteration: 32; vars: 28788; clauses: 4497; decisions: 27397
iteration: 33; vars: 29597; clauses: 5457; decisions: 28491
finished solver loop. fail_count = 0
key=1001100110000101101010000001011001100001100110011001101000011000010001011000011010101001101000000100010001000100010001000100010101100010001000100010001000100010001000
iteration=34; backbones_count=0; cube_count=152258; cpu_time=0.907826; maxrss=8.95312
