inputs=60 keys=156 outputs=26 gates=827
iteration: 1; vars: 3581; clauses: 1691; decisions: 1170
iteration: 2; vars: 4363; clauses: 2527; decisions: 2542
iteration: 3; vars: 5145; clauses: 3328; decisions: 3832
iteration: 4; vars: 5927; clauses: 4252; decisions: 4296
iteration: 5; vars: 6709; clauses: 1913; decisions: 5085
iteration: 6; vars: 7491; clauses: 2843; decisions: 5804
iteration: 7; vars: 8273; clauses: 3586; decisions: 6508
iteration: 8; vars: 9055; clauses: 4350; decisions: 7600
iteration: 9; vars: 9837; clauses: 2203; decisions: 8368
iteration: 10; vars: 10619; clauses: 2997; decisions: 8914
iteration: 11; vars: 11401; clauses: 3810; decisions: 9262
iteration: 12; vars: 12183; clauses: 4617; decisions: 9602
iteration: 13; vars: 12965; clauses: 2435; decisions: 11215
iteration: 14; vars: 13747; clauses: 3397; decisions: 11556
iteration: 15; vars: 14529; clauses: 4367; decisions: 12573
iteration: 16; vars: 15311; clauses: 5148; decisions: 13223
iteration: 17; vars: 16093; clauses: 2644; decisions: 13777
iteration: 18; vars: 16875; clauses: 3519; decisions: 14211
iteration: 19; vars: 17657; clauses: 4369; decisions: 14558
iteration: 20; vars: 18439; clauses: 5236; decisions: 15470
iteration: 21; vars: 19221; clauses: 6033; decisions: 15775
iteration: 22; vars: 20003; clauses: 3010; decisions: 16247
iteration: 23; vars: 20785; clauses: 3641; decisions: 16709
iteration: 24; vars: 21567; clauses: 4265; decisions: 17182
iteration: 25; vars: 22349; clauses: 5058; decisions: 18049
iteration: 26; vars: 23131; clauses: 5941; decisions: 18536
iteration: 27; vars: 23913; clauses: 6838; decisions: 19716
iteration: 28; vars: 24695; clauses: 3369; decisions: 21480
iteration: 29; vars: 25477; clauses: 4087; decisions: 21766
iteration: 30; vars: 26259; clauses: 4792; decisions: 24451
iteration: 31; vars: 27041; clauses: 5639; decisions: 25557
iteration: 32; vars: 27823; clauses: 6343; decisions: 27450
finished solver loop. fail_count = 0
key=100001011000010001101000000100011000011001101000011000010110000101101010101001101000000100010001000100010001000100010101100010001000100010001000100010001000
iteration=33; backbones_count=0; cube_count=142756; cpu_time=0.778004; maxrss=8.89062
