inputs=60 keys=164 outputs=26 gates=851
iteration: 1; vars: 3693; clauses: 1735; decisions: 2914
iteration: 2; vars: 4499; clauses: 2591; decisions: 3717
iteration: 3; vars: 5305; clauses: 3461; decisions: 4609
iteration: 4; vars: 6111; clauses: 4470; decisions: 5508
iteration: 5; vars: 6917; clauses: 1920; decisions: 6984
iteration: 6; vars: 7723; clauses: 2773; decisions: 7907
iteration: 7; vars: 8529; clauses: 3495; decisions: 8691
iteration: 8; vars: 9335; clauses: 2155; decisions: 9223
iteration: 9; vars: 10141; clauses: 3102; decisions: 9747
iteration: 10; vars: 10947; clauses: 3960; decisions: 10147
iteration: 11; vars: 11753; clauses: 4808; decisions: 10521
iteration: 12; vars: 12559; clauses: 2456; decisions: 11516
iteration: 13; vars: 13365; clauses: 3267; decisions: 11852
iteration: 14; vars: 14171; clauses: 4102; decisions: 12589
iteration: 15; vars: 14977; clauses: 5100; decisions: 13604
iteration: 16; vars: 15783; clauses: 2681; decisions: 14094
iteration: 17; vars: 16589; clauses: 3529; decisions: 14405
iteration: 18; vars: 17395; clauses: 4372; decisions: 14708
iteration: 19; vars: 18201; clauses: 5239; decisions: 15139
iteration: 20; vars: 19007; clauses: 2978; decisions: 16150
iteration: 21; vars: 19813; clauses: 3774; decisions: 16458
iteration: 22; vars: 20619; clauses: 4671; decisions: 16802
iteration: 23; vars: 21425; clauses: 5611; decisions: 17499
iteration: 24; vars: 22231; clauses: 6578; decisions: 18766
iteration: 25; vars: 23037; clauses: 3358; decisions: 20505
iteration: 26; vars: 23843; clauses: 4117; decisions: 20939
iteration: 27; vars: 24649; clauses: 4897; decisions: 21691
iteration: 28; vars: 25455; clauses: 5804; decisions: 23028
iteration: 29; vars: 26261; clauses: 6618; decisions: 23336
iteration: 30; vars: 27067; clauses: 3716; decisions: 25573
iteration: 31; vars: 27873; clauses: 4540; decisions: 25945
iteration: 32; vars: 28679; clauses: 5387; decisions: 26840
iteration: 33; vars: 29485; clauses: 6107; decisions: 27171
iteration: 34; vars: 30291; clauses: 6943; decisions: 27471
finished solver loop. fail_count = 0
key=10011001100001011010100001100110000100010110100001101000011001100110011001101010101010010110000100010001000100010001000100010101100010001000100010001000100010001000
iteration=35; backbones_count=0; cube_count=155952; cpu_time=0.92366; maxrss=9.28125
